1458999809
a:2:{s:7:"content";s:1620:"<section id="about-us" class="padding-top off-white">
	<div class="container text-center">
		<div class="row section-title">
			<div class="col-sm-8 col-sm-offset-2 wow pulse">
				<h2>At 3D Plex we believe in technology that</h2>
			</div>
		</div>
		<div class="row">
						<div class="col-md-4 col-sm-4 about-content wow fadeIn">
				<div class="about-icon">
					<i class="fa fa-industry"></i>
				</div>
				<div class="about-text">
					<h3>Enables.</h3>
										<p>People of any background and education level to be engaged and adopt new advancements intuitively.</p>
										<p>Providing with the knowledge and tools to empower equal contribution, in their own's and society’s future.</p>
									</div>
			</div>
						<div class="col-md-4 col-sm-4 about-content wow fadeIn">
				<div class="about-icon">
					<i class="fa fa-users"></i>
				</div>
				<div class="about-text">
					<h3>Connects.</h3>
										<p>Creative minds with powerful machines.</p>
										<p>Humans to Humans, Machines to Machines, Humans to Machines.</p>
										<p>Accelerating an advanced connectivity ecosystem where human needs can be served in new and meaningful ways.</p>
									</div>
			</div>
						<div class="col-md-4 col-sm-4 about-content wow fadeIn">
				<div class="about-icon">
					<i class="fa fa-bar-chart"></i>
				</div>
				<div class="about-text">
					<h3>Innovates.</h3>
										<p>Offering fertile grounds for creative individuals and businesses to adopt new novel services and surpass conventional practices and thinking systems.</p>
									</div>
			</div>
					</div>
	</div>
</section>
";s:12:"content_meta";N;}